-------------------------------------------------------------------------------
Test set: service.JDBCMockTrancaTest
-------------------------------------------------------------------------------
Tests run: 8, Failures: 0, Errors: 0, Skipped: 0, Time elapsed: 0.03 s - in service.JDBCMockTrancaTest
